1 999999 525
1 1 1
2 2 2
2 1 2
10 1 20
100 1 119
99 99 26
901 1000 174
34 54 113
54 33 113
67 50 113
45 30 110
200 100 125
350 300 144
5000 4000 215
350 300 144
790 790 78
100 200 125
50 40 110
800 900 179
750 800 153
450 400 134
350 300 144
7000 6500 257
560 400 142
400 300 144
1 2 2
10 1 20
34 56 113
45 54 113
68 89 116
900 1000 174
650 600 145
55 55 113
44 44 17
4444 4444 34
450 540 142
8658 7659 252
4303 3293 238
1000 1000 112
450 450 54
3450 4540 238
77650 65400 351
45000 50000 314
76000 54000 335
65000 30303 340
5400 4300 215
44 40 110
540 303 144
123 456 144
987 534 179
423 292 144
543 899 179
232 394 144
493 983 179
320 850 171
888 232 179
885 212 179
452 321 144
123 890 179
439 912 179
8987 9000 185
9999 2112 262
213 809 171
213 921 179
538 393 142
1209 1202 71
2121 1231 180
1232 2290 183
8778 8900 185
1 2 2
1 3 8
3 1 8
5 5 6
59 59 33
33 33 27
898 752 179
243 232 128
987 232 179
458 212 144
345 323 144
332 211 144
123 544 144
534 499 124
424 989 179
434 324 144
329 239 144
3120 2390 217
3091 99909 351
43939 56439 340
3221 1231 217
12213 12313 188
54544 45344 340
60 60 20
5 5 6
4 4 3
3 3 8
3 2 8
3 1 8
1 4 8
1 1000 179
10001 11000 268
20001 21000 256
30001 31000 272
40001 41000 288
50001 51000 278
60001 61000 335
70001 71000 312
80001 81000 320
90001 91000 315
100001 101000 341
110001 111000 292
120001 121000 318
130001 131000 331
140001 141000 344
150001 151000 370
160001 161000 370
170001 171000 290
180001 181000 365
190001 191000 329
200001 201000 342
210001 211000 342
220001 221000 324
230001 231000 443
240001 241000 368
250001 251000 332
260001 261000 332
270001 271000 407
280001 281000 345
290001 291000 327
300001 301000 371
310001 311000 371
320001 321000 371
330001 331000 322
340001 341000 304
350001 351000 304
360001 361000 410
370001 371000 392
380001 381000 379
390001 391000 361
400001 401000 374
410001 411000 449
420001 421000 343
430001 431000 312
440001 441000 325
450001 451000 387
460001 461000 307
470001 471000 307
480001 481000 413
490001 491000 320
500001 501000 364
510001 511000 333
520001 521000 333
530001 531000 346
540001 541000 408
550001 551000 346
560001 561000 359
570001 571000 377
580001 581000 266
590001 591000 359
600001 601000 372
610001 611000 341
620001 621000 372
630001 631000 341
640001 641000 416
650001 651000 341
660001 661000 323
670001 671000 323
680001 681000 336
690001 691000 336
700001 701000 367
710001 711000 380
720001 721000 411
730001 731000 380
740001 741000 393
750001 751000 362
760001 761000 380
770001 771000 349
780001 781000 344
790001 791000 375
800001 801000 375
810001 811000 406
820001 821000 450
830001 831000 344
840001 841000 357
850001 851000 357
860001 861000 357
870001 871000 326
880001 881000 326
890001 891000 339
900001 901000 401
910001 911000 476
920001 921000 339
930001 931000 370
940001 941000 383
950001 951000 414
960001 961000 414
970001 971000 458
980001 981000 427
990001 991000 321
