...............
----------------------------------------------------------------------
Ran 15 tests in 0.030s

OK
Name             Stmts   Miss Branch BrPart  Cover   Missing
------------------------------------------------------------
Collatz.py          42      0     20      1    98%   179->181
TestCollatz.py      66      0      0      0   100%
------------------------------------------------------------
TOTAL              108      0     20      1    99%
