1 10 20
100 200 125
201 210 89
900 1000 174
10 1 20
1 20 21
1 1 1
5 5 6
210 200 89
1 1000 179
100 2250 183
999997 999999 259
242604 971517 525
623625 648520 509
376906 393975 436
574233 978937 525
240542 651686 509
345116 465899 449
487005 147868 449
974719 322234 525
701928 430637 509
937131 290466 525
867838 952036 507
994658 616553 525
475721 309337 449
480721 83996 449
588329 995860 525
239 743 171
763 946 179
939 918 174
239 339 144
564 929 179
483 361 134
131 378 144
88 413 144
856 183 171
966 220 179
816 230 171
230 745 171
330 488 142
5 206 125
532 194 144
679 775 171
897 848 179
161 416 144
520 553 137
311 199 128
285 384 144
682 177 145
737 318 171
665 838 171
90 331 144
1499 2716 209
2323 5110 238
8708 666 262
9545 8356 260
6533 806 262
1859 7197 262
5588 2134 238
4471 9789 262
4206 2953 238
3815 4143 189
5692 1433 238
6367 8581 257
1745 1282 180
9417 7661 260
6326 2025 262
1261 4895 238
4005 2197 238
963 5213 238
9283 930 262
1403 5766 238
5258 4521 210
3411 6031 238
1728 7035 262
2755 6681 262
3142 3021 186
62712 27420 340
49189 2355 324
44107 4070 324
284 76773 340
67537 88897 351
50250 62257 340
42027 23419 324
99990 87441 333
32250 59650 340
31434 10050 308
24432 94793 351
44625 21116 324
3374 98407 351
30311 99472 351
67511 58146 335
47834 26541 324
48618 59267 340
91029 40750 351
67815 34956 340
83670 8693 351
79259 44694 351
36733 28432 324
49995 28859 324
67246 33387 340
33101 79327 351
301693 22084 443
431544 358227 449
4511 80841 351
67203 347477 443
110942 128195 349
86994 94796 333
330869 394644 441
124416 25489 354
484300 334098 449
17940 205757 383
1440 465757 449
325074 56550 443
451192 130019 449
174200 169100 347
97924 7256 351
133063 320621 443
394493 258462 441
252324 26565 443
378863 28100 443
169252 42470 383
114633 483395 449
364625 161792 443
6385 313636 443
186457 425362 449
145900 467228 449
