..........................
----------------------------------------------------------------------
Ran 26 tests in 0.073s

OK
Name             Stmts   Miss Branch BrPart  Cover   Missing
------------------------------------------------------------
Collatz.py          37      0     16      0   100%
TestCollatz.py     105      0      0      0   100%
------------------------------------------------------------
TOTAL              142      0     16      0   100%