1 10 20
100 200 125
201 210 89
900 1000 174
1 999999 525
1 1 1
99998 99999 227
15 18 21
18 15 21
6969 9696 260
1 8232 262
2 667 145
3 3539 217
4 3202 217
1715 28242 308
8691 71 262
7197 86335 351
9563 55149 340
2179 95081 351
14 9987 262
50631 6628 324
7869 442 262
1191 9716 262
5948 4411 236
6911 8030 257
4703 71082 340
1320 7234 262
2681 7631 262
19375 9954 279
1721 89672 351
9481 9130 260
39155 9939 324
9286 13 262
5114 2807 238
2550 2650 191
3152 6042 238
175 7357 262
6475 6691 244
3509 50 217
3326 1 217
42324 6309 324
1089 9177 262
43904 7429 324
882282 85301 525
33 333333 443
4346 85714 351
2645 2870 173
999999 7 525
404 2535 209
777 493 171
256 256 9
9178 35548 311
3810 1182 238
69 7540 262
5059 5309 192
63466 4503 340
8592 5956 262
1824 6664 262
3962 6677 262
4219 135 238
1755 2533 209
5 605010 470
54 46402 324
432 52661 340
9675 13 262
4757 782 238
9410 7004 260
8518 2141 262
8194 1387 262
3213 7274 262
6790 7096 257
580 7120 262
4970 833 238
6705 5684 262
4855 66631 340
1291 68661 340
538 3233 217
9405 1120 262
8367 9773 260
566 3343 217
1823 6881 262
1 31991 308
11871 65 268
65681 3826 340
132 7672 262
37694 9609 324
6945 4343 262
29781 5034 308
3004 50 217
27 7411 262
5202 8078 262
8636 629741 509
37 230300 386
9 109700 354
8422 400 262
5272 7983 262
6 23444 279
8541 3797 262
20 5707 238
58444 6307 340
3084 8888 262
15524 789 276
30011 4159 308
12700 7514 268
