..........................
----------------------------------------------------------------------
Ran 26 tests in 0.332s

OK
Name             Stmts   Miss Branch BrPart  Cover   Missing
------------------------------------------------------------
Collatz.py          56      0     22      0   100%
TestCollatz.py     112      0      0      0   100%
------------------------------------------------------------
TOTAL              168      0     22      0   100%
